Module 1: Introduction, visualization, and general linear models
…
  pivot_longer(cols = starts_with("distance"),
               names_to = "age",
               # this removes "distance_age" from the values
               names_prefix = "distance_age", 
               values_to = "distance",
  ) %>%
  # convert age to numeric
  mutate(age = as.numeric(age)) %>%
  # create new variable indicating measurement occasion
  group_by(id) %>%
  mutate(time = row_number()) %>%
  ungroup()
dentallong

# A tibble: 108 × 5
      id gender   age distance  time
   <int> <chr>  <dbl>    <dbl> <int>
 1     1 F          8     21       1
 2     1 F         10     20       2
 3     1 F         12     21.5     3
 4     1 F         14     23       4
 5     2 F          8     21       1
 6     2 F         10     21.5     2
 7     2 F         12     24       3
 8     2 F         14     25.5     4
 9     3 F          8     20.5     1
10     3 F         10     24       2
# ℹ 98 more rows
…
